…
``` r
set.seed(0921)
p2_df = tibble(
  x = rnorm(1000),
  y = rnorm(1000),
  vec_logical = x + y > 0，
  vec_numeric = as.numeric(vec_logical),
  vec_factor = as.factor(vec_logical)
)
p2_df
```

    ## # A tibble: 1,000 x 5
    ##         x       y vec_logical vec_numeric vec_factor
    ##     <dbl>   <dbl> <lgl>             <dbl> <fct>     
    ##  1  1.50   0.733  TRUE                  1 TRUE      
    ##  2 -0.245 -0.425  FALSE                 0 FALSE     
    ##  3  0.574  0.499  TRUE                  1 TRUE      
    ##  4 -0.632  0.129  FALSE                 0 FALSE     
    ##  5  1.06  -0.712  TRUE                  1 TRUE      
    ##  6  0.518  0.703  TRUE                  1 TRUE      
    ##  7  0.464  0.598  TRUE                  1 TRUE      
    ##  8  0.135 -0.836  FALSE                 0 FALSE     
    ##  9 -1.04  -1.55   FALSE                 0 FALSE     
    ## 10  0.347  0.0781 TRUE                  1 TRUE      
    ## # ... with 990 more rows
…
